…
tests <- tests %>%group_by(Date) %>% summarise(cumulative_tests= sum(csum))

new_tests <- diff(tests$cumulative_tests, differences = 1)

new_tests <- c(0, new_tests)
tests$daily_tests <- new_tests
setnames(tests, old = c('Date'), new = c('date'))

canada
```

```
## # A tibble: 94 x 3
##    date       total_cases   new
##    <date>           <int> <dbl>
##  1 2020-01-22           0     0
##  2 2020-01-23           0     0
##  3 2020-01-24           0     0
##  4 2020-01-25           0     0
##  5 2020-01-26           1     1
##  6 2020-01-27           1     0
##  7 2020-01-28           2     1
##  8 2020-01-29           2     0
##  9 2020-01-30           2     0
## 10 2020-01-31           4     2
## # ... with 84 more rows
```
…
